<?xml version="1.0" encoding="UTF-8" standalone="no"?>
<!-- Created with Inkscape (http://www.inkscape.org/) -->

<svg
   xmlns:dc="http://purl.org/dc/elements/1.1/"
   xmlns:cc="http://creativecommons.org/ns#"
   xmlns:rdf="http://www.w3.org/1999/02/22-rdf-syntax-ns#"
   xmlns:svg="http://www.w3.org/2000/svg"
   xmlns="http://www.w3.org/2000/svg"
   xmlns:xlink="http://www.w3.org/1999/xlink"
   xmlns:sodipodi="http://sodipodi.sourceforge.net/DTD/sodipodi-0.dtd"
   xmlns:inkscape="http://www.inkscape.org/namespaces/inkscape"
   id="svg2"
   version="1.1"
   inkscape:version="0.47 r22583"
   width="496.06299"
   height="374.56107"
   sodipodi:docname="paraview_named_nodes_select_threshold.svg">
  <metadata
     id="metadata8">
    <rdf:RDF>
      <cc:Work
         rdf:about="">
        <dc:format>image/svg+xml</dc:format>
        <dc:type
           rdf:resource="http://purl.org/dc/dcmitype/StillImage" />
        <dc:title></dc:title>
      </cc:Work>
    </rdf:RDF>
  </metadata>
  <defs
     id="defs6">
    <inkscape:perspective
       sodipodi:type="inkscape:persp3d"
       inkscape:vp_x="0 : 0.5 : 1"
       inkscape:vp_y="0 : 1000 : 0"
       inkscape:vp_z="1 : 0.5 : 1"
       inkscape:persp3d-origin="0.5 : 0.33333333 : 1"
       id="perspective10" />
    <inkscape:perspective
       id="perspective3602"
       inkscape:persp3d-origin="0.5 : 0.33333333 : 1"
       inkscape:vp_z="1 : 0.5 : 1"
       inkscape:vp_y="0 : 1000 : 0"
       inkscape:vp_x="0 : 0.5 : 1"
       sodipodi:type="inkscape:persp3d" />
    <inkscape:perspective
       id="perspective3633"
       inkscape:persp3d-origin="0.5 : 0.33333333 : 1"
       inkscape:vp_z="1 : 0.5 : 1"
       inkscape:vp_y="0 : 1000 : 0"
       inkscape:vp_x="0 : 0.5 : 1"
       sodipodi:type="inkscape:persp3d" />
    <inkscape:perspective
       id="perspective3633-1"
       inkscape:persp3d-origin="0.5 : 0.33333333 : 1"
       inkscape:vp_z="1 : 0.5 : 1"
       inkscape:vp_y="0 : 1000 : 0"
       inkscape:vp_x="0 : 0.5 : 1"
       sodipodi:type="inkscape:persp3d" />
  </defs>
  <sodipodi:namedview
     pagecolor="#ffffff"
     bordercolor="#666666"
     borderopacity="1"
     objecttolerance="10"
     gridtolerance="10"
     guidetolerance="10"
     inkscape:pageopacity="0"
     inkscape:pageshadow="2"
     inkscape:window-width="1182"
     inkscape:window-height="841"
     id="namedview4"
     showgrid="false"
     showguides="true"
     inkscape:guide-bbox="true"
     inkscape:zoom="0.96937647"
     inkscape:cx="356.49587"
     inkscape:cy="115.47994"
     inkscape:window-x="0"
     inkscape:window-y="0"
     inkscape:window-maximized="0"
     inkscape:current-layer="svg2" />
  <g
     id="g3703"
     transform="scale(1.1666667,1.1666667)">
    <image
       sodipodi:absref="/home/users/strieben/Documents/dev/NIGHTLY/CFS_TRUNK_NIGHTLY/share/doc/developer/develManual/pics/paraview_named_nodes_select_threshold.png"
       xlink:href="paraview_named_nodes_select_threshold.png"
       width="425.19684"
       height="321.05234"
       id="image12"
       x="0"
       y="0" />
    <rect
       rx="6.163372"
       ry="6.163372"
       y="265.52515"
       x="3.3087769"
       height="23.96867"
       width="38.305817"
       id="rect2818"
       style="fill:none;stroke:#ff0000;stroke-width:1.22278059;stroke-linecap:butt;stroke-linejoin:miter;stroke-miterlimit:4;stroke-opacity:1;stroke-dasharray:none" />
    <path
       sodipodi:nodetypes="cc"
       id="path3592"
       d="m 41.792331,276.0593 76.781339,19.76985"
       style="fill:none;stroke:#ff0000;stroke-width:1.28571427;stroke-linecap:butt;stroke-linejoin:miter;stroke-miterlimit:4;stroke-opacity:1;stroke-dasharray:none" />
    <rect
       transform="scale(-1,1)"
       ry="6.163372"
       y="96.968124"
       x="-416.92865"
       height="25.000259"
       width="131.149"
       id="rect2818-7"
       style="fill:none;stroke:#ff0000;stroke-width:1.22278059;stroke-linecap:butt;stroke-linejoin:miter;stroke-miterlimit:4;stroke-opacity:1;stroke-dasharray:none"
       rx="6.1633716" />
    <path
       sodipodi:nodetypes="cc"
       id="path3592-5"
       d="M 285.08613,107.50228 253.69481,98.387587"
       style="fill:none;stroke:#ff0000;stroke-width:1.28571427;stroke-linecap:butt;stroke-linejoin:miter;stroke-miterlimit:4;stroke-opacity:1;stroke-dasharray:none" />
    <rect
       transform="scale(-1,1)"
       ry="6.1633716"
       y="135.74405"
       x="-415.83392"
       height="11.073781"
       width="70.800926"
       id="rect2818-7-8"
       style="fill:none;stroke:#ff0000;stroke-width:1.22278059;stroke-linecap:butt;stroke-linejoin:miter;stroke-miterlimit:4;stroke-opacity:1;stroke-dasharray:none"
       rx="6.163372" />
    <path
       sodipodi:nodetypes="cc"
       id="path3592-5-3"
       d="M 344.40263,140.08864 258.33698,128.91077"
       style="fill:none;stroke:#ff0000;stroke-width:1.28571427;stroke-linecap:butt;stroke-linejoin:miter;stroke-miterlimit:4;stroke-opacity:1;stroke-dasharray:none" />
    <rect
       transform="scale(-1,1)"
       ry="6.1633716"
       y="154.31268"
       x="-354.5174"
       height="17.263327"
       width="67.706154"
       id="rect2818-7-89"
       style="fill:none;stroke:#ff0000;stroke-width:1.22278059;stroke-linecap:butt;stroke-linejoin:miter;stroke-miterlimit:4;stroke-opacity:1;stroke-dasharray:none"
       rx="6.163372" />
    <path
       sodipodi:nodetypes="cc"
       id="path3592-5-6"
       d="m 302.62319,172.06797 7.29334,18.73826"
       style="fill:none;stroke:#ff0000;stroke-width:1.28571427;stroke-linecap:butt;stroke-linejoin:miter;stroke-miterlimit:4;stroke-opacity:1;stroke-dasharray:none" />
  </g>
</svg>
