<?xml version="1.0" encoding="UTF-8" standalone="no"?>
<!DOCTYPE svg PUBLIC "-//W3C//DTD SVG 1.1//EN" "http://www.w3.org/Graphics/SVG/1.1/DTD/svg11.dtd">
<!-- Created with Inkscape (http://www.inkscape.org/) by Marsupilami -->
<svg xmlns:svg="http://www.w3.org/2000/svg" xmlns="http://www.w3.org/2000/svg" version="1.1" width="1024" height="210" viewBox="-1.87425 -1.87425 322.6795 66.2235" id="svg11954">
  <defs id="defs11956"/>
  <path d="m 0.001,25.698 0,4.405 58.802,0 1.319,-4.405 -60.121,0 z m 0,6.466 0,4.404 56.878,0 1.319,-4.404 -58.197,0 z m 146.92,8.487 0,-2.077 -15.593,0 0,0.764 c 0,1.281 -0.101,2.501 -0.293,3.641 l 15.76,0 c 0.06,-0.758 0.126,-1.52 0.126,-2.328 m -15.593,-4.101 15.593,0 0,-4.405 -15.593,0 0,4.405 z m 0,-6.429 15.593,0 0,-4.405 -15.593,0 0,4.405 z m 0,-6.429 15.593,0 0,-4.405 -15.593,0 0,4.405 z m 0,-6.429 15.593,0 0,-4.406 -15.593,0 0,4.406 z m 0,-6.43 15.593,0 0,-4.405 -15.593,0 0,4.405 z m 0,-6.427 15.593,0 0,-4.406 -15.593,0 0,4.406 z m 15.215,40.595 -16.013,0 c -0.59,1.793 -1.539,3.298 -2.931,4.407 l 17.802,0 c 0.514,-1.355 0.883,-2.835 1.142,-4.407 m -2.026,6.431 -48.02,0 c 0.836,1.646 1.87,3.106 3.043,4.406 l 41.931,0 c 1.175,-1.3 2.211,-2.76 3.046,-4.406 m -48.905,-2.025 17.784,0 c -1.385,-1.108 -2.325,-2.613 -2.915,-4.406 l -16.008,0 c 0.256,1.571 0.626,3.051 1.139,4.406 m -1.394,-6.427 15.761,0 c -0.198,-1.14 -0.293,-2.359 -0.293,-3.643 l 0,-0.762 -15.593,0 0,2.075 c 0,0.81 0.06,1.57 0.125,2.33 m -0.125,-6.43 15.592,0 0,-4.405 -15.592,0 0,4.405 z m 0,-6.429 15.592,0 0,-4.405 -15.592,0 0,4.405 z m 0,-6.429 15.592,0 0,-4.405 -15.592,0 0,4.405 z m 0,-6.429 15.592,0 0,-4.406 -15.592,0 0,4.406 z m 0,-6.43 15.592,0 0,-4.405 -15.592,0 0,4.405 z m 0,-6.427 15.592,0 0,-4.406 -15.592,0 0,4.406 z m 0.657,57.861 -1.663,-4.406 -16.48,0 1.416,4.406 16.727,0 z m -18.746,-6.429 16.32,0 -1.666,-4.406 -16.091,0 1.437,4.406 z m -39.148,-6.431 53.037,0 -1.665,-4.406 -49.746,0 -1.626,4.406 z m 2.374,-6.427 48.235,0 -1.665,-4.405 -44.941,0 -1.629,4.405 z m 30.577,-6.43 15.228,0 -1.665,-4.405 -14.883,0 1.32,4.405 z m -1.925,-6.429 14.725,0 -1.664,-4.405 -14.379,0 1.318,4.405 z m -1.924,-6.429 14.22,0 -1.665,-4.405 -13.873,0 1.318,4.405 z m -1.925,-6.429 13.716,0 -1.665,-4.406 -25.727,0 -1.628,4.406 13.921,0 0.604,-2.019 0.175,0 0.604,2.019 z m -12.928,-6.43 24.215,0 -1.665,-4.405 -20.923,0 -1.627,4.405 z m 2.374,-6.427 19.413,0 L 71.227,0 55.107,0 53.479,4.406 z m 8.566,14.881 -14.063,0 -1.627,4.405 14.369,0 1.321,-4.405 z M 0,10.833 l 47.66,0 0,-4.405 -47.66,0 0,4.405 z m 0,-6.427 47.66,0 L 47.66,0 0,0 0,4.406 z m 15.594,8.451 -15.594,0 0,4.406 15.594,0 0,-4.406 z m 0,6.43 -15.594,0 0,4.405 15.594,0 0,-4.405 z m 0,19.288 -15.594,0 0,4.405 15.594,0 0,-4.405 z m 0,6.426 -15.594,0 0,4.406 15.594,0 0,-4.406 z m 0,6.431 -15.594,0 0,4.406 15.594,0 0,-4.406 z m 0,6.43 -15.594,0 0,4.406 15.594,0 0,-4.406 z m 18.14,0 -1.627,4.406 16.64,0 1.417,-4.406 -16.43,0 z m 0.748,-2.023 16.331,0 0.02,-0.08 -0.05,0 1.352,-4.325 -16.038,0 -1.626,4.406 z m 104.861,2.023 -37.683,0 c 2.316,1.94 4.995,3.395 7.832,4.406 l 21.998,0 c 2.846,-1.011 5.532,-2.466 7.852,-4.406" id="path11106" style="fill:#074777;fill-opacity:1;fill-rule:nonzero;stroke:none"/>
  <path d="m 165.903,53.236 0,1.67 -4.772,0 0,1.938 4.379,0 0,1.543 -4.379,0 0,2.214 4.873,0 0,1.671 -6.861,0 0,-9.036 6.76,0 z m 6.108,4.088 c 0.457,0 0.799,-0.102 1.025,-0.304 0.229,-0.203 0.344,-0.53 0.344,-0.986 0,-0.44 -0.112,-0.759 -0.344,-0.957 -0.226,-0.198 -0.568,-0.297 -1.025,-0.297 l -2.176,0 0,2.544 2.176,0 z m 0.71,-4.088 c 0.404,0 0.769,0.07 1.095,0.195 0.324,0.131 0.603,0.31 0.834,0.539 0.234,0.227 0.41,0.491 0.533,0.791 0.125,0.3 0.183,0.621 0.183,0.968 0,0.532 -0.112,0.991 -0.335,1.38 -0.223,0.387 -0.59,0.683 -1.096,0.886 l 0,0.02 c 0.245,0.07 0.448,0.171 0.608,0.309 0.161,0.14 0.291,0.305 0.392,0.495 0.1,0.188 0.176,0.398 0.222,0.626 0.05,0.227 0.08,0.455 0.101,0.684 0,0.143 0.01,0.311 0.02,0.506 0,0.194 0.03,0.392 0.04,0.594 0.03,0.203 0.05,0.395 0.1,0.577 0.05,0.18 0.113,0.335 0.209,0.461 l -1.988,0 c -0.112,-0.287 -0.176,-0.628 -0.201,-1.025 -0.03,-0.396 -0.06,-0.775 -0.112,-1.14 -0.06,-0.471 -0.21,-0.817 -0.429,-1.037 -0.22,-0.219 -0.579,-0.329 -1.078,-0.329 l -1.986,0 0,3.531 -1.986,0 0,-9.036 4.872,0 z m 6.428,0 0,7.365 4.404,0 0,1.671 -6.39,0 0,-9.036 1.986,0 z m 10.796,5.543 -1.14,-3.315 -0.03,0 -1.177,3.315 2.342,0 z m -0.112,-5.543 3.378,9.036 -2.063,0 -0.683,-2.011 -3.38,0 -0.709,2.011 -2,0 3.418,-9.036 2.039,0 z m 6.478,0 3.772,6.061 0.03,0 0,-6.061 1.86,0 0,9.036 -1.987,0 -3.76,-6.05 -0.03,0 0,6.05 -1.86,0 0,-9.036 1.974,0 z m 13.063,8.966 c -0.431,0.183 -0.867,0.273 -1.305,0.273 -0.693,0 -1.314,-0.12 -1.866,-0.36 -0.553,-0.241 -1.019,-0.573 -1.399,-0.994 -0.38,-0.422 -0.67,-0.919 -0.874,-1.487 -0.201,-0.57 -0.303,-1.184 -0.303,-1.842 0,-0.676 0.101,-1.302 0.303,-1.88 0.204,-0.577 0.494,-1.082 0.874,-1.512 0.38,-0.43 0.846,-0.768 1.399,-1.013 0.552,-0.245 1.173,-0.366 1.866,-0.366 0.464,0 0.914,0.07 1.349,0.209 0.435,0.137 0.827,0.344 1.176,0.614 0.35,0.268 0.639,0.603 0.866,0.998 0.229,0.398 0.369,0.854 0.419,1.368 l -1.898,0 c -0.125,-0.506 -0.346,-0.886 -0.683,-1.139 -0.339,-0.252 -0.748,-0.38 -1.229,-0.38 -0.446,0 -0.828,0.09 -1.139,0.26 -0.312,0.173 -0.565,0.404 -0.76,0.695 -0.194,0.291 -0.335,0.624 -0.424,0.994 -0.09,0.372 -0.132,0.755 -0.132,1.152 0,0.379 0.05,0.748 0.132,1.108 0.09,0.357 0.23,0.681 0.424,0.967 0.195,0.287 0.448,0.518 0.76,0.69 0.311,0.174 0.693,0.259 1.139,0.259 0.657,0 1.167,-0.166 1.526,-0.5 0.359,-0.332 0.566,-0.816 0.625,-1.449 l -2,0 0,-1.481 3.798,0 0,4.886 -1.267,0 -0.201,-1.025 c -0.355,0.455 -0.747,0.775 -1.176,0.955 m 11.351,-8.966 0,1.67 -4.77,0 0,1.938 4.378,0 0,1.543 -4.378,0 0,2.214 4.871,0 0,1.671 -6.86,0 0,-9.036 6.759,0 z m 4.048,0 3.771,6.061 0.02,0 0,-6.061 1.86,0 0,9.036 -1.988,0 -3.758,-6.05 -0.03,0 0,6.05 -1.86,0 0,-9.036 1.973,0 z m 11.721,6.354 -3.808,0 0,-1.545 3.808,0 0,1.545 z m 4.259,-6.354 3.771,6.061 0.03,0 0,-6.061 1.86,0 0,9.036 -1.986,0 -3.758,-6.05 -0.02,0 0,6.05 -1.861,0 0,-9.036 1.975,0 z m 11.236,-1.012 -1.709,0 0,-1.482 1.709,0 0,1.482 z m 2.607,0 -1.71,0 0,-1.482 1.71,0 0,1.482 z m 0.67,9.358 c -0.683,0.594 -1.628,0.893 -2.833,0.893 -1.225,0 -2.172,-0.296 -2.842,-0.886 -0.671,-0.592 -1.006,-1.502 -1.006,-2.733 l 0,-5.62 1.986,0 0,5.62 c 0,0.244 0.03,0.484 0.06,0.72 0.04,0.236 0.131,0.445 0.266,0.626 0.135,0.183 0.324,0.33 0.564,0.444 0.24,0.114 0.562,0.17 0.969,0.17 0.707,0 1.197,-0.157 1.467,-0.474 0.27,-0.316 0.405,-0.812 0.405,-1.486 l 0,-5.62 1.986,0 0,5.62 c 0,1.223 -0.341,2.133 -1.025,2.726 m 7.232,-4.258 c 0.455,0 0.796,-0.102 1.023,-0.304 0.229,-0.203 0.343,-0.53 0.343,-0.986 0,-0.44 -0.113,-0.759 -0.343,-0.957 -0.227,-0.198 -0.568,-0.297 -1.023,-0.297 l -2.178,0 0,2.544 2.178,0 z m 0.708,-4.088 c 0.404,0 0.77,0.07 1.094,0.195 0.325,0.131 0.604,0.31 0.835,0.539 0.234,0.227 0.41,0.491 0.533,0.791 0.125,0.3 0.182,0.621 0.182,0.968 0,0.532 -0.112,0.991 -0.334,1.38 -0.222,0.387 -0.589,0.683 -1.094,0.886 l 0,0.02 c 0.244,0.07 0.447,0.171 0.608,0.309 0.16,0.14 0.29,0.305 0.391,0.495 0.1,0.188 0.175,0.398 0.221,0.626 0.05,0.227 0.07,0.455 0.1,0.684 0.01,0.143 0.01,0.311 0.03,0.506 0.01,0.194 0.02,0.392 0.05,0.594 0.03,0.203 0.05,0.395 0.1,0.577 0.05,0.18 0.113,0.335 0.209,0.461 l -1.987,0 c -0.113,-0.287 -0.177,-0.628 -0.203,-1.025 -0.02,-0.396 -0.06,-0.775 -0.112,-1.14 -0.07,-0.471 -0.212,-0.817 -0.432,-1.037 -0.218,-0.219 -0.577,-0.329 -1.075,-0.329 l -1.987,0 0,3.531 -1.988,0 0,-9.036 4.874,0 z m 6.668,0 3.771,6.061 0.03,0 0,-6.061 1.861,0 0,9.036 -1.987,0 -3.758,-6.05 -0.02,0 0,6.05 -1.86,0 0,-9.036 1.974,0 z m 11.936,3.658 c 0.355,0 0.645,-0.09 0.874,-0.254 0.227,-0.168 0.341,-0.443 0.341,-0.823 0,-0.21 -0.04,-0.382 -0.112,-0.518 -0.07,-0.135 -0.177,-0.24 -0.304,-0.317 -0.125,-0.08 -0.273,-0.128 -0.435,-0.157 -0.166,-0.03 -0.337,-0.05 -0.513,-0.05 l -1.861,0 0,2.114 2.012,0 z m 0.254,-3.658 c 0.43,0 0.822,0.04 1.178,0.114 0.353,0.07 0.658,0.2 0.91,0.372 0.254,0.174 0.45,0.404 0.589,0.69 0.14,0.288 0.209,0.643 0.209,1.063 0,0.456 -0.1,0.836 -0.31,1.139 -0.207,0.305 -0.513,0.555 -0.918,0.747 0.557,0.161 0.973,0.443 1.247,0.843 0.275,0.401 0.412,0.883 0.412,1.45 0,0.453 -0.09,0.848 -0.267,1.181 -0.178,0.335 -0.416,0.606 -0.714,0.817 -0.3,0.212 -0.642,0.368 -1.027,0.469 -0.383,0.1 -0.777,0.151 -1.182,0.151 l -4.38,0 0,-9.036 4.253,0 z m -0.139,7.491 c 0.193,0 0.379,-0.02 0.556,-0.06 0.178,-0.04 0.333,-0.1 0.469,-0.19 0.134,-0.09 0.243,-0.209 0.321,-0.36 0.07,-0.152 0.125,-0.346 0.125,-0.582 0,-0.465 -0.13,-0.795 -0.392,-0.994 -0.262,-0.198 -0.608,-0.296 -1.038,-0.296 l -2.165,0 0,2.478 2.128,0 z m 11.869,-7.491 0,1.67 -4.771,0 0,1.938 4.38,0 0,1.543 -4.38,0 0,2.214 4.872,0 0,1.671 -6.858,0 0,-9.036 6.757,0 z m 6.237,4.088 c 0.458,0 0.798,-0.102 1.026,-0.304 0.228,-0.203 0.343,-0.53 0.343,-0.986 0,-0.44 -0.113,-0.759 -0.343,-0.957 -0.228,-0.198 -0.568,-0.297 -1.026,-0.297 l -2.175,0 0,2.544 2.175,0 z m 0.71,-4.088 c 0.404,0 0.77,0.07 1.095,0.195 0.324,0.131 0.604,0.31 0.835,0.539 0.231,0.227 0.408,0.491 0.531,0.791 0.125,0.3 0.184,0.621 0.184,0.968 0,0.532 -0.112,0.991 -0.335,1.38 -0.224,0.387 -0.589,0.683 -1.095,0.886 l 0,0.02 c 0.245,0.07 0.448,0.171 0.608,0.309 0.16,0.14 0.291,0.305 0.392,0.495 0.1,0.188 0.175,0.398 0.221,0.626 0.05,0.227 0.07,0.455 0.1,0.684 0,0.143 0.01,0.311 0.02,0.506 0,0.194 0.03,0.392 0.04,0.594 0.02,0.203 0.06,0.395 0.1,0.577 0.05,0.18 0.112,0.335 0.209,0.461 l -1.988,0 c -0.112,-0.287 -0.176,-0.628 -0.202,-1.025 -0.03,-0.396 -0.06,-0.775 -0.113,-1.14 -0.06,-0.471 -0.211,-0.817 -0.43,-1.037 -0.22,-0.219 -0.579,-0.329 -1.076,-0.329 l -1.986,0 0,3.531 -1.988,0 0,-9.036 4.873,0 z m 9.875,8.966 c -0.431,0.183 -0.865,0.273 -1.302,0.273 -0.693,0 -1.315,-0.12 -1.869,-0.36 -0.551,-0.241 -1.019,-0.573 -1.396,-0.994 -0.38,-0.422 -0.673,-0.919 -0.875,-1.487 -0.202,-0.57 -0.305,-1.184 -0.305,-1.842 0,-0.676 0.101,-1.302 0.305,-1.88 0.202,-0.577 0.495,-1.082 0.875,-1.512 0.377,-0.43 0.845,-0.768 1.396,-1.013 0.554,-0.245 1.176,-0.366 1.869,-0.366 0.463,0 0.911,0.07 1.346,0.209 0.436,0.137 0.827,0.344 1.178,0.614 0.349,0.268 0.638,0.603 0.866,0.998 0.229,0.398 0.366,0.854 0.417,1.368 l -1.898,0 c -0.113,-0.506 -0.345,-0.886 -0.684,-1.139 -0.337,-0.252 -0.745,-0.38 -1.227,-0.38 -0.448,0 -0.827,0.09 -1.139,0.26 -0.313,0.173 -0.565,0.404 -0.759,0.695 -0.194,0.291 -0.337,0.624 -0.424,0.994 -0.09,0.372 -0.132,0.755 -0.132,1.152 0,0.379 0.04,0.748 0.132,1.108 0.09,0.357 0.23,0.681 0.424,0.967 0.193,0.287 0.446,0.518 0.759,0.69 0.312,0.174 0.691,0.259 1.139,0.259 0.659,0 1.166,-0.166 1.526,-0.5 0.357,-0.332 0.567,-0.816 0.626,-1.449 l -2,0 0,-1.481 3.797,0 0,4.886 -1.266,0 -0.201,-1.025 c -0.355,0.455 -0.748,0.775 -1.179,0.955" id="path11110" style="fill:#074777;fill-opacity:1;fill-rule:nonzero;stroke:none"/>
  <path d="m 165.851,47.913 c -0.683,0.595 -1.628,0.893 -2.835,0.893 -1.224,0 -2.171,-0.295 -2.841,-0.887 -0.671,-0.591 -1.006,-1.501 -1.006,-2.732 l 0,-5.62 1.986,0 0,5.62 c 0,0.244 0.03,0.485 0.06,0.721 0.04,0.236 0.13,0.445 0.266,0.626 0.133,0.182 0.322,0.33 0.562,0.443 0.242,0.115 0.564,0.171 0.969,0.171 0.709,0 1.199,-0.159 1.468,-0.474 0.27,-0.317 0.405,-0.813 0.405,-1.487 l 0,-5.62 1.987,0 0,5.62 c 0,1.222 -0.341,2.131 -1.025,2.726 m 5.239,-8.346 3.772,6.062 0.03,0 0,-6.062 1.86,0 0,9.036 -1.986,0 -3.76,-6.049 -0.03,0 0,6.049 -1.86,0 0,-9.036 1.974,0 z m 9.86,9.036 -1.988,0 0,-9.036 1.988,0 0,9.036 z m 4.359,0 -2.925,-9.036 2.037,0 2.013,6.354 0.03,0 2.037,-6.354 2.051,0 -3,9.036 -2.238,0 z m 13.465,-9.036 0,1.671 -4.773,0 0,1.935 4.379,0 0,1.545 -4.379,0 0,2.215 4.874,0 0,1.67 -6.86,0 0,-9.036 6.759,0 z m 6.11,4.087 c 0.455,0 0.797,-0.1 1.025,-0.302 0.228,-0.204 0.342,-0.533 0.342,-0.988 0,-0.438 -0.112,-0.757 -0.342,-0.956 -0.228,-0.197 -0.57,-0.297 -1.025,-0.297 l -2.178,0 0,2.543 2.178,0 z m 0.708,-4.087 c 0.405,0 0.77,0.07 1.095,0.196 0.324,0.131 0.604,0.31 0.835,0.538 0.232,0.227 0.41,0.492 0.532,0.791 0.125,0.3 0.183,0.622 0.183,0.969 0,0.531 -0.112,0.991 -0.335,1.378 -0.223,0.388 -0.588,0.684 -1.095,0.887 l 0,0.02 c 0.245,0.07 0.448,0.171 0.608,0.31 0.16,0.14 0.291,0.305 0.392,0.493 0.1,0.19 0.175,0.399 0.222,0.627 0.05,0.228 0.08,0.456 0.1,0.685 0.01,0.142 0.01,0.311 0.03,0.505 0.01,0.193 0.03,0.392 0.05,0.595 0.03,0.202 0.05,0.395 0.1,0.576 0.05,0.181 0.112,0.335 0.208,0.461 l -1.987,0 c -0.113,-0.286 -0.178,-0.629 -0.203,-1.025 -0.03,-0.396 -0.06,-0.776 -0.112,-1.139 -0.06,-0.472 -0.21,-0.817 -0.43,-1.037 -0.22,-0.22 -0.578,-0.33 -1.078,-0.33 l -1.986,0 0,3.531 -1.986,0 0,-9.036 4.872,0 z m 6.152,6.809 c 0.112,0.211 0.255,0.381 0.436,0.513 0.181,0.13 0.395,0.228 0.639,0.29 0.244,0.06 0.497,0.1 0.758,0.1 0.179,0 0.368,-0.01 0.57,-0.04 0.203,-0.03 0.393,-0.09 0.57,-0.169 0.178,-0.08 0.325,-0.202 0.443,-0.349 0.112,-0.146 0.177,-0.335 0.177,-0.563 0,-0.245 -0.08,-0.444 -0.234,-0.595 -0.157,-0.151 -0.361,-0.277 -0.613,-0.378 -0.253,-0.103 -0.54,-0.192 -0.86,-0.268 -0.322,-0.08 -0.647,-0.16 -0.977,-0.252 -0.337,-0.08 -0.666,-0.188 -0.986,-0.31 -0.321,-0.122 -0.607,-0.282 -0.861,-0.474 -0.253,-0.195 -0.458,-0.438 -0.614,-0.728 -0.156,-0.292 -0.234,-0.643 -0.234,-1.057 0,-0.465 0.1,-0.866 0.298,-1.209 0.199,-0.341 0.457,-0.626 0.779,-0.854 0.32,-0.229 0.682,-0.397 1.087,-0.506 0.405,-0.11 0.81,-0.165 1.215,-0.165 0.473,0 0.926,0.05 1.361,0.157 0.435,0.107 0.822,0.278 1.158,0.514 0.337,0.236 0.605,0.538 0.805,0.904 0.197,0.367 0.296,0.813 0.296,1.336 l -1.924,0 c -0.01,-0.27 -0.08,-0.495 -0.17,-0.671 -0.1,-0.178 -0.226,-0.316 -0.387,-0.418 -0.16,-0.101 -0.344,-0.173 -0.55,-0.215 -0.206,-0.04 -0.431,-0.06 -0.678,-0.06 -0.16,0 -0.32,0.02 -0.48,0.05 -0.161,0.03 -0.306,0.09 -0.436,0.177 -0.131,0.08 -0.239,0.19 -0.323,0.316 -0.09,0.127 -0.127,0.287 -0.127,0.481 0,0.178 0.04,0.32 0.1,0.43 0.06,0.11 0.2,0.211 0.399,0.305 0.198,0.09 0.473,0.185 0.823,0.278 0.349,0.09 0.807,0.211 1.372,0.355 0.169,0.03 0.404,0.09 0.704,0.183 0.299,0.09 0.596,0.229 0.891,0.424 0.296,0.194 0.551,0.454 0.766,0.778 0.215,0.325 0.323,0.74 0.323,1.247 0,0.413 -0.07,0.798 -0.24,1.153 -0.161,0.354 -0.399,0.66 -0.715,0.917 -0.318,0.256 -0.709,0.456 -1.178,0.6 -0.467,0.144 -1.01,0.215 -1.626,0.215 -0.498,0 -0.981,-0.06 -1.45,-0.182 -0.468,-0.124 -0.881,-0.315 -1.239,-0.578 -0.359,-0.261 -0.643,-0.594 -0.855,-0.999 -0.21,-0.405 -0.311,-0.886 -0.304,-1.442 l 1.924,0 c 0,0.304 0.05,0.561 0.165,0.771 m 9.238,2.228 -1.987,0 0,-9.037 1.987,0 0,9.037 z m 1.595,-7.365 0,-1.672 7.405,0 0,1.672 -2.709,0 0,7.365 -1.988,0 0,-7.365 -2.708,0 z m 11.226,-2.684 -1.71,0 0,-1.481 1.71,0 0,1.481 z m 2.607,0 -1.708,0 0,-1.481 1.708,0 0,1.481 z m -1,6.556 -1.14,-3.317 -0.03,0 -1.176,3.317 2.341,0 z m -0.112,-5.544 3.379,9.037 -2.063,0 -0.684,-2.012 -3.378,0 -0.709,2.012 -2,0 3.417,-9.037 2.038,0 z m 3.189,1.672 0,-1.672 7.405,0 0,1.672 -2.709,0 0,7.365 -1.988,0 0,-7.365 -2.708,0 z" id="path11114" style="fill:#074777;fill-opacity:1;fill-rule:nonzero;stroke:none"/>
  <path d="m 165.498,25.73 0,1.67 -4.367,0 0,2.088 3.784,0 0,1.544 -3.784,0 0,3.734 -1.987,0 0,-9.036 6.354,0 z m 5.778,4.087 c 0.455,0 0.798,-0.1 1.025,-0.304 0.228,-0.202 0.341,-0.531 0.341,-0.986 0,-0.439 -0.112,-0.759 -0.341,-0.956 -0.227,-0.199 -0.57,-0.298 -1.025,-0.298 l -2.177,0 0,2.544 2.177,0 z m 0.709,-4.087 c 0.404,0 0.77,0.06 1.094,0.196 0.325,0.13 0.605,0.31 0.835,0.537 0.234,0.228 0.41,0.492 0.532,0.792 0.125,0.3 0.184,0.622 0.184,0.968 0,0.532 -0.113,0.992 -0.335,1.379 -0.224,0.388 -0.589,0.684 -1.095,0.886 l 0,0.02 c 0.244,0.07 0.447,0.172 0.607,0.31 0.16,0.14 0.292,0.304 0.393,0.494 0.1,0.19 0.174,0.399 0.22,0.628 0.05,0.226 0.08,0.455 0.1,0.682 0,0.144 0.01,0.313 0.02,0.506 0,0.195 0.03,0.393 0.05,0.595 0.03,0.203 0.05,0.394 0.1,0.577 0.05,0.181 0.112,0.335 0.209,0.461 l -1.987,0 c -0.112,-0.286 -0.177,-0.629 -0.202,-1.025 -0.03,-0.396 -0.06,-0.776 -0.113,-1.139 -0.06,-0.472 -0.211,-0.819 -0.43,-1.037 -0.219,-0.22 -0.578,-0.33 -1.076,-0.33 l -1.987,0 0,3.531 -1.987,0 0,-9.036 4.873,0 z m 6.825,9.036 -1.986,0 0,-9.036 1.986,0 0,9.036 z m 9.036,-9.036 0,1.67 -4.77,0 0,1.936 4.379,0 0,1.545 -4.379,0 0,2.215 4.872,0 0,1.67 -6.859,0 0,-9.036 6.757,0 z m 5.707,7.366 c 0.286,0 0.565,-0.05 0.835,-0.14 0.27,-0.09 0.508,-0.246 0.72,-0.463 0.211,-0.213 0.38,-0.495 0.506,-0.841 0.126,-0.346 0.191,-0.767 0.191,-1.265 0,-0.456 -0.05,-0.867 -0.132,-1.234 -0.09,-0.367 -0.235,-0.681 -0.438,-0.942 -0.202,-0.263 -0.47,-0.463 -0.802,-0.603 -0.334,-0.138 -0.745,-0.208 -1.235,-0.208 l -1.418,0 0,5.696 1.773,0 z m 0.137,-7.366 c 0.583,0 1.125,0.09 1.628,0.277 0.502,0.186 0.936,0.465 1.303,0.836 0.368,0.372 0.653,0.835 0.86,1.393 0.208,0.556 0.31,1.21 0.31,1.961 0,0.659 -0.09,1.266 -0.253,1.823 -0.168,0.557 -0.423,1.037 -0.765,1.443 -0.342,0.404 -0.768,0.723 -1.278,0.954 -0.511,0.234 -1.112,0.349 -1.805,0.349 l -3.897,0 0,-9.036 3.897,0 z m 9.878,4.087 c 0.456,0 0.797,-0.1 1.026,-0.304 0.227,-0.202 0.341,-0.531 0.341,-0.986 0,-0.439 -0.112,-0.759 -0.341,-0.956 -0.229,-0.199 -0.57,-0.298 -1.026,-0.298 l -2.177,0 0,2.544 2.177,0 z m 0.708,-4.087 c 0.405,0 0.772,0.06 1.095,0.196 0.325,0.13 0.604,0.31 0.837,0.537 0.231,0.228 0.408,0.492 0.531,0.792 0.125,0.3 0.184,0.622 0.184,0.968 0,0.532 -0.113,0.992 -0.337,1.379 -0.222,0.388 -0.588,0.684 -1.095,0.886 l 0,0.02 c 0.245,0.07 0.448,0.172 0.608,0.31 0.16,0.14 0.292,0.304 0.394,0.494 0.1,0.19 0.173,0.399 0.221,0.628 0.05,0.226 0.07,0.455 0.09,0.682 0.01,0.144 0.01,0.313 0.03,0.506 0.01,0.195 0.03,0.393 0.05,0.595 0.03,0.203 0.05,0.394 0.1,0.577 0.05,0.181 0.113,0.335 0.209,0.461 l -1.986,0 c -0.113,-0.286 -0.178,-0.629 -0.204,-1.025 -0.03,-0.396 -0.06,-0.776 -0.112,-1.139 -0.06,-0.472 -0.21,-0.819 -0.43,-1.037 -0.22,-0.22 -0.578,-0.33 -1.075,-0.33 l -1.988,0 0,3.531 -1.986,0 0,-9.036 4.871,0 z m 6.637,9.036 -1.988,0 0,-9.036 1.988,0 0,9.036 z m 7.932,-6.626 c -0.112,-0.189 -0.266,-0.355 -0.442,-0.499 -0.178,-0.144 -0.379,-0.256 -0.602,-0.336 -0.223,-0.08 -0.457,-0.119 -0.702,-0.119 -0.448,0 -0.828,0.08 -1.139,0.259 -0.312,0.172 -0.566,0.405 -0.76,0.695 -0.194,0.292 -0.335,0.623 -0.424,0.995 -0.09,0.371 -0.132,0.755 -0.132,1.151 0,0.38 0.04,0.749 0.132,1.107 0.09,0.358 0.23,0.682 0.424,0.968 0.194,0.287 0.448,0.517 0.76,0.69 0.311,0.174 0.691,0.26 1.139,0.26 0.607,0 1.082,-0.185 1.422,-0.556 0.344,-0.372 0.553,-0.862 0.628,-1.469 l 1.924,0 c -0.05,0.565 -0.182,1.075 -0.393,1.531 -0.21,0.456 -0.49,0.844 -0.835,1.164 -0.346,0.321 -0.751,0.566 -1.215,0.735 -0.464,0.169 -0.974,0.252 -1.531,0.252 -0.691,0 -1.315,-0.12 -1.868,-0.361 -0.552,-0.24 -1.018,-0.571 -1.397,-0.992 -0.38,-0.423 -0.671,-0.918 -0.874,-1.488 -0.202,-0.569 -0.304,-1.184 -0.304,-1.841 0,-0.675 0.1,-1.303 0.304,-1.88 0.203,-0.578 0.494,-1.083 0.874,-1.511 0.379,-0.432 0.845,-0.769 1.397,-1.014 0.553,-0.245 1.177,-0.366 1.868,-0.366 0.497,0 0.969,0.07 1.411,0.215 0.443,0.143 0.839,0.351 1.19,0.626 0.35,0.274 0.639,0.614 0.866,1.019 0.228,0.405 0.372,0.868 0.432,1.392 l -1.924,0 c -0.04,-0.229 -0.113,-0.437 -0.229,-0.627 m 6.036,-2.41 0,3.467 3.657,0 0,-3.467 1.987,0 0,9.036 -1.987,0 0,-3.898 -3.657,0 0,3.898 -1.987,0 0,-9.036 1.987,0 z m 11.708,6.353 -3.809,0 0,-1.543 3.809,0 0,1.543 z m 6.524,-0.81 -1.139,-3.316 -0.02,0 -1.176,3.316 2.341,0 z M 243,25.73 l 3.379,9.036 -2.063,0 -0.683,-2.011 -3.38,0 -0.708,2.011 -2,0 3.416,-9.036 2.039,0 z m 6.736,0 0,7.366 4.405,0 0,1.67 -6.392,0 0,-9.036 1.987,0 z m 12.753,0 0,1.67 -4.773,0 0,1.936 4.38,0 0,1.545 -4.38,0 0,2.215 4.874,0 0,1.67 -6.86,0 0,-9.036 6.759,0 z m 1.531,0 2.304,0 1.771,2.885 1.835,-2.885 2.178,0 -2.899,4.316 3.151,4.72 -2.366,0 -1.975,-3.125 -2.013,3.125 -2.227,0 3.152,-4.733 -2.911,-4.303 z m 14.643,5.543 -1.139,-3.316 -0.02,0 -1.176,3.316 2.34,0 z m -0.113,-5.543 3.38,9.036 -2.064,0 -0.684,-2.011 -3.378,0 -0.709,2.011 -2,0 3.419,-9.036 2.036,0 z m 6.535,0 3.771,6.062 0.02,0 0,-6.062 1.859,0 0,9.036 -1.986,0 -3.759,-6.05 -0.02,0 0,6.05 -1.859,0 0,-9.036 1.974,0 z m 11.543,7.366 c 0.286,0 0.565,-0.05 0.835,-0.14 0.27,-0.09 0.511,-0.246 0.721,-0.463 0.211,-0.213 0.38,-0.495 0.506,-0.841 0.127,-0.346 0.19,-0.767 0.19,-1.265 0,-0.456 -0.05,-0.867 -0.132,-1.234 -0.09,-0.367 -0.235,-0.681 -0.438,-0.942 -0.201,-0.263 -0.47,-0.463 -0.802,-0.603 -0.334,-0.138 -0.746,-0.208 -1.234,-0.208 l -1.419,0 0,5.696 1.772,0 z m 0.139,-7.366 c 0.582,0 1.124,0.09 1.626,0.277 0.502,0.186 0.937,0.465 1.303,0.836 0.369,0.372 0.654,0.835 0.86,1.393 0.209,0.556 0.31,1.21 0.31,1.961 0,0.659 -0.09,1.266 -0.252,1.823 -0.169,0.557 -0.424,1.037 -0.765,1.443 -0.342,0.404 -0.769,0.723 -1.278,0.954 -0.511,0.234 -1.113,0.349 -1.804,0.349 l -3.9,0 0,-9.036 3.9,0 z m 12.492,0 0,1.67 -4.77,0 0,1.936 4.377,0 0,1.545 -4.377,0 0,2.215 4.87,0 0,1.67 -6.859,0 0,-9.036 6.759,0 z m 6.047,4.087 c 0.455,0 0.798,-0.1 1.025,-0.304 0.228,-0.202 0.342,-0.531 0.342,-0.986 0,-0.439 -0.113,-0.759 -0.342,-0.956 -0.227,-0.199 -0.57,-0.298 -1.025,-0.298 l -2.177,0 0,2.544 2.177,0 z m 0.708,-4.087 c 0.405,0 0.77,0.06 1.095,0.196 0.325,0.13 0.604,0.31 0.835,0.537 0.232,0.228 0.41,0.492 0.532,0.792 0.125,0.3 0.183,0.622 0.183,0.968 0,0.532 -0.113,0.992 -0.334,1.379 -0.225,0.388 -0.59,0.684 -1.096,0.886 l 0,0.02 c 0.245,0.07 0.447,0.172 0.607,0.31 0.161,0.14 0.292,0.304 0.394,0.494 0.1,0.19 0.175,0.399 0.22,0.628 0.05,0.226 0.07,0.455 0.101,0.682 0,0.144 0.01,0.313 0.02,0.506 0,0.195 0.03,0.393 0.05,0.595 0.02,0.203 0.05,0.394 0.1,0.577 0.05,0.181 0.114,0.335 0.21,0.461 l -1.989,0 c -0.111,-0.286 -0.175,-0.629 -0.202,-1.025 -0.03,-0.396 -0.06,-0.776 -0.112,-1.139 -0.06,-0.472 -0.211,-0.819 -0.43,-1.037 -0.218,-0.22 -0.577,-0.33 -1.075,-0.33 l -1.988,0 0,3.531 -1.987,0 0,-9.036 4.872,0 z" id="path11118" style="fill:#074777;fill-opacity:1;fill-rule:nonzero;stroke:none"/>
</svg>
<!-- version: 20110311, original size: 318.931 62.475, border: 3% -->