%!PS-Adobe-3.0 EPSF-3.0
%%Creator: cairo 1.8.10 (http://cairographics.org)
%%CreationDate: Sun Mar 23 19:47:29 2014
%%Pages: 1
%%BoundingBox: 0 0 139 86
%%DocumentData: Clean7Bit
%%LanguageLevel: 2
%%EndComments
%%BeginProlog
/cairo_eps_state save def
/dict_count countdictstack def
/op_count count 1 sub def
userdict begin
/q { gsave } bind def
/Q { grestore } bind def
/cm { 6 array astore concat } bind def
/w { setlinewidth } bind def
/J { setlinecap } bind def
/j { setlinejoin } bind def
/M { setmiterlimit } bind def
/d { setdash } bind def
/m { moveto } bind def
/l { lineto } bind def
/c { curveto } bind def
/h { closepath } bind def
/re { exch dup neg 3 1 roll 5 3 roll moveto 0 rlineto
      0 exch rlineto 0 rlineto closepath } bind def
/S { stroke } bind def
/f { fill } bind def
/f* { eofill } bind def
/B { fill stroke } bind def
/B* { eofill stroke } bind def
/n { newpath } bind def
/W { clip } bind def
/W* { eoclip } bind def
/BT { } bind def
/ET { } bind def
/pdfmark where { pop globaldict /?pdfmark /exec load put }
    { globaldict begin /?pdfmark /pop load def /pdfmark
    /cleartomark load def end } ifelse
/BDC { mark 3 1 roll /BDC pdfmark } bind def
/EMC { mark /EMC pdfmark } bind def
/cairo_store_point { /cairo_point_y exch def /cairo_point_x exch def } def
/Tj { show currentpoint cairo_store_point } bind def
/TJ {
  {
    dup
    type /stringtype eq
    { show } { -0.001 mul 0 cairo_font_matrix dtransform rmoveto } ifelse
  } forall
  currentpoint cairo_store_point
} bind def
/cairo_selectfont { cairo_font_matrix aload pop pop pop 0 0 6 array astore
    cairo_font exch selectfont cairo_point_x cairo_point_y moveto } bind def
/Tf { pop /cairo_font exch def /cairo_font_matrix where
      { pop cairo_selectfont } if } bind def
/Td { matrix translate cairo_font_matrix matrix concatmatrix dup
      /cairo_font_matrix exch def dup 4 get exch 5 get cairo_store_point
      /cairo_font where { pop cairo_selectfont } if } bind def
/Tm { 2 copy 8 2 roll 6 array astore /cairo_font_matrix exch def
      cairo_store_point /cairo_font where { pop cairo_selectfont } if } bind def
/g { setgray } bind def
/rg { setrgbcolor } bind def
/d1 { setcachedevice } bind def
%%EndProlog
%%Page: 1 1
%%BeginPageSetup
%%PageBoundingBox: 0 0 139 86
%%EndPageSetup
q
0.203922 0.380392 0.792157 rg
139.555 85.464 m 137.062 71.019 l 120.324 71.019 l 118.652 61.038 l 
135.387 61.038 l 132.895 46.593 l 116.156 46.593 l 113.969 34.14 l 
130.703 34.14 l 128.195 19.694 l 88.547 19.694 l 99.902 85.464 l 
139.555 85.464 l h
95.238 85.464 m 92.746 71.019 l 66.145 71.019 l 64.102 71.019 62.77 
70.862 62.141 70.554 c 61.516 70.249 61.109 69.675 60.965 68.827 c 
60.625 67.085 l 60.555 66.753 60.516 66.468 60.508 66.202 c 60.5 65.936 
60.527 65.722 60.586 65.522 c 60.902 64.394 63.434 63.132 68.168 61.769 
c 70.031 61.222 71.496 60.792 72.57 60.46 c 77.832 58.815 81.512 57.237 
83.621 55.761 c 85.711 54.3 87.07 52.472 87.684 50.296 c 87.914 49.483 
88.055 48.503 88.09 47.374 c 88.129 46.245 88.062 45.116 87.84 44.022 c 
85.688 30.257 l 85.043 26.237 83.449 23.464 80.949 21.952 c 78.438 
20.444 73.117 19.694 65.016 19.694 c 34.316 19.694 l 36.859 34.14 l 
57.797 34.14 l 61.516 34.14 63.871 34.44 64.871 35.022 c 65.852 35.604 
66.441 36.698 66.629 38.327 c 67.156 41.827 l 67.25 42.311 67.281 
42.792 67.273 43.241 c 67.262 43.69 67.199 44.089 67.109 44.401 c 
66.633 46.097 63.723 47.772 58.348 49.468 c 57.059 49.851 56.074 50.163 
55.344 50.397 c 49.32 52.339 45.48 53.882 43.836 55.011 c 42.188 56.14 
41.117 57.585 40.621 59.347 c 40.395 60.159 40.27 61.073 40.223 62.12 c 
40.199 63.147 40.27 64.194 40.43 65.226 c 42.578 78.175 l 43.016 80.866 
44.23 82.745 46.215 83.835 c 48.184 84.921 51.684 85.464 56.664 85.464 
c 95.238 85.464 l 95.238 85.464 l h
37.66 85.464 m 25.406 14.444 l 126.945 14.444 l 124.438 -0.001 l 0 
-0.001 l 14.746 85.464 l 37.66 85.464 l 37.66 85.464 l h
37.66 85.464 m f
Q
showpage
%%Trailer
count op_count sub {pop} repeat
countdictstack dict_count sub {end} repeat
cairo_eps_state restore
%%EOF
